{
  "id": "app.drey.Toggle.Devel",
  "runtime": "org.gnome.Platform",
  "runtime-version": "master",
  "sdk": "org.gnome.Sdk",
  "sdk-extensions": [
    "org.freedesktop.Sdk.Extension.node18",
    "org.freedesktop.Sdk.Extension.typescript"
  ],
  "build-options": {
    "append-path": "/usr/lib/sdk/node18/bin:/usr/lib/sdk/typescript/bin"
  },
  "command": "start-toggle",
  "tags": ["nightly"],
  "finish-args": [
    "--share=ipc",
    "--device=dri",
    "--socket=wayland",
    "--socket=fallback-x11",
    "--talk-name=ca.desrt.dconf",
    "--filesystem=xdg-run/dconf",
    "--filesystem=host:ro",
    "--env=DCONF_USER_CONFIG_DIR=.config/dconf",
    "--env=GIO_EXTRA_MODULES=/app/lib/gio/modules/",
    "--talk-name=org.freedesktop.Flatpak"
  ],
  "cleanup": [
    "/include",
    "/lib/pkgconfig",
    "/man",
    "/share/doc",
    "/share/gtk-doc",
    "/share/man",
    "/share/pkgconfig",
    "*.la",
    "*.a"
  ],
  "modules": [
    {
      "name": "blueprint-compiler",
      "buildsystem": "meson",
      "cleanup": ["*"],
      "sources": [
        {
          "type": "git",
          "url": "https://gitlab.gnome.org/jwestman/blueprint-compiler",
          "tag": "v0.10.0",
          "commit": "2a39a16391122af2f3d812e478c1c1398c98b972"
        }
      ]
    },
    {
      "name": "dconf",
      "buildsystem": "meson",
      "config-opts": [
        "-Dbash_completion=false",
        "-Dman=false",
        "-Dsystemduserunitdir=/app/systemd-unit"
      ],
      "cleanup": [
        "/include",
        "/lib/pkgconfig",
        "/libexec",
        "/share/dbus-1",
        "/app/systemd-unit"
      ],
      "sources": [
        {
          "type": "archive",
          "url": "https://download.gnome.org/sources/dconf/0.40/dconf-0.40.0.tar.xz",
          "sha256": "cf7f22a4c9200421d8d3325c5c1b8b93a36843650c9f95d6451e20f0bcb24533",
          "x-checker-data": {
            "type": "gnome",
            "name": "dconf"
          }
        },
        {
          "type": "patch",
          "path": "dconf-override.patch"
        }
      ]
    },
    {
      "name": "scripts",
      "buildsystem": "simple",
      "build-commands": [
        "install -Dm 755 start-toggle.sh /app/bin/start-toggle"
      ],
      "sources": [
        {
          "type": "file",
          "path": "start-toggle.sh"
        }
      ]
    },
    {
      "name": "toggle",
      "buildsystem": "meson",
      "config-opts": ["-Dprofile=development"],
      "sources": [
        {
          "type": "dir",
          "path": "../"
        }
      ]
    }
  ]
}
