<?xml version="1.0" encoding="UTF-8"?>
<svg height="16px" viewBox="0 0 16 16" width="16px" xmlns="http://www.w3.org/2000/svg">
    <g fill="#241f31">
        <path d="m 5.5 2 c -3.03125 0 -5.5 2.46875 -5.5 5.5 s 2.46875 5.5 5.5 5.5 h 5 c 3.03125 0 5.5 -2.46875 5.5 -5.5 s -2.46875 -5.5 -5.5 -5.5 z m 0 2 h 5 c 1.957031 0 3.5 1.542969 3.5 3.5 s -1.542969 3.5 -3.5 3.5 h -5 c -1.957031 0 -3.5 -1.542969 -3.5 -3.5 s 1.542969 -3.5 3.5 -3.5 z m 0 0"/>
        <path d="m 13 7.5 c 0 1.378906 -1.121094 2.5 -2.5 2.5 s -2.5 -1.121094 -2.5 -2.5 s 1.121094 -2.5 2.5 -2.5 s 2.5 1.121094 2.5 2.5 z m 0 0"/>
    </g>
</svg>
